{
  "data": [
    {
      "id": "1",
      "title": "Job ngon thang 1",
      "position_name": "Backend developer",
      "number_of_position": 2,
      "status": 1,
      "close_date": "2024-10-10 00:00:00",
      "created_at": ""
    },
    {
      "id": "2",
      "title": "Job ngon thang 3",
      "position_name": "Frontend developer",
      "number_of_position": 2,
      "status": 1,
      "close_date": "2024-10-10 00:00:00"
    },
    {
      "id": "3",
      "title": "Job ngon thang 5",
      "position_name": "DevOps developer",
      "number_of_position": 2,
      "status": 1,
      "close_date": "2024-10-10 00:00:00"
    },
    {
      "id": "4",
      "title": "Job ngon thang 6",
      "position_name": "Security developer",
      "number_of_position": 2,
      "status": 1,
      "close_date": "2024-10-10 00:00:00"
    },
    {
      "id": "5",
      "title": "Job ngon thang 7",
      "position_name": "Backend developer",
      "number_of_position": 2,
      "status": 1,
      "close_date": "2024-10-10 00:00:00"
    },
    {
      "id": "6",
      "title": "Job ngon thang 1",
      "position_name": "Backend developer",
      "number_of_position": 2,
      "status": 1,
      "close_date": "2024-10-10 00:00:00",
      "created_at": ""
    },
    {
      "id": "7",
      "title": "Job ngon thang 3",
      "position_name": "Frontend developer",
      "number_of_position": 2,
      "status": 1,
      "close_date": "2024-10-10 00:00:00"
    },
    {
      "id": "8",
      "title": "Job ngon thang 5",
      "position_name": "DevOps developer",
      "number_of_position": 2,
      "status": 1,
      "close_date": "2024-10-10 00:00:00"
    },
    {
      "id": "9",
      "title": "Job ngon thang 6",
      "position_name": "Security developer",
      "number_of_position": 2,
      "status": 1,
      "close_date": "2024-10-10 00:00:00"
    },
    {
      "id": "10",
      "title": "Job ngon thang 7",
      "position_name": "Backend developer",
      "number_of_position": 2,
      "status": 1,
      "close_date": "2024-10-10 00:00:00"
    }
  ],
  "meta": {
    "current_page": 1,
    "from": 1,
    "last_page": 10,
    "path": "http://localhost:3000/api/v1/company/jobs",
    "per_page": 10,
    "to": 1,
    "total": 88
  }
}
