{
  "data": [
    {
      "id": "1",
      "title": "Job ngon tháng 10/2024",
      "salary_from": 1000,
      "salary_upto": 1500,
      "vacancy": 2,
      "position_name": "Backend developer",
      "type_of_employee": "Full time",
      "address": "Da Nang",
      "company": {
        "id": "1",
        "name": "MC Solution",
        "phone": "0123456678",
        "email": "nhphong1804@mcsolution.vn",
        "logo": "/images/company_1.jpeg",
        "company_type": "IT",
        "size": 100
      }
    },
    {
      "id": "1",
      "title": "Job ngon tháng 10/2024",
      "salary_from": 1000,
      "salary_upto": 1500,
      "vacancy": 2,
      "position_name": "Backend developer",
      "type_of_employee": "Full time",
      "address": "Da Nang",
      "company": {
        "id": "1",
        "name": "MC Solution",
        "phone": "0123456678",
        "email": "nhphong1804@mcsolution.vn",
        "logo": "/images/company_1.jpeg",
        "company_type": "IT",
        "size": 100
      }
    },
    {
      "id": "1",
      "title": "Job ngon tháng 10/2024",
      "salary_from": 1000,
      "salary_upto": 1500,
      "vacancy": 2,
      "position_name": "Backend developer",
      "type_of_employee": "Full time",
      "address": "Da Nang",
      "company": {
        "id": "1",
        "name": "MC Solution",
        "phone": "0123456678",
        "email": "nhphong1804@mcsolution.vn",
        "logo": "/images/company_1.jpeg",
        "company_type": "IT",
        "size": 100
      }
    },
    {
      "id": "1",
      "title": "Job ngon tháng 10/2024",
      "salary_from": 1000,
      "salary_upto": 1500,
      "vacancy": 2,
      "position_name": "Backend developer",
      "type_of_employee": "Full time",
      "address": "Da Nang",
      "company": {
        "id": "1",
        "name": "MC Solution",
        "phone": "0123456678",
        "email": "nhphong1804@mcsolution.vn",
        "logo": "/images/company_1.jpeg",
        "company_type": "IT",
        "size": 100
      }
    },
    {
      "id": "2",
      "title": "Job ngon tháng 10/2024",
      "salary_from": 1000,
      "salary_upto": 1500,
      "vacancy": 2,
      "position_name": "Backend developer",
      "type_of_employee": 1,
      "address": "HCM",
      "interview_type": 1,
      "company": {
        "id": "1",
        "name": "MC Solution",
        "logo": "/images/company_1.jpeg",
        "company_type": 1,
        "size": 100
      }
    },
    {
      "id": "3",
      "title": "Job ngon tháng 10/2024",
      "salary_from": 1000,
      "salary_upto": 1500,
      "vacancy": 2,
      "position_name": "Front developer",
      "type_of_employee": "Full time",
      "address": "Da Nang",
      "company": {
        "id": "1",
        "name": "MC Solution",
        "phone": "0123456678",
        "email": "nhphong1804@mcsolution.vn",
        "logo": "/images/company_1.jpeg",
        "company_type": "IT",
        "size": 100
      }
    },
    {
      "id": "4",
      "title": "Job ngon tháng 10/2024",
      "salary_from": 1000,
      "salary_upto": 1500,
      "vacancy": 2,
      "position_name": "Backend developer",
      "type_of_employee": "Full time",
      "address": "Da Nang",
      "company": {
        "id": "1",
        "name": "MC Solution",
        "phone": "0123456678",
        "email": "nhphong1804@mcsolution.vn",
        "logo": "/images/company_1.jpeg",
        "company_type": "IT",
        "size": 100
      }
    },
    {
      "id": "1",
      "title": "Job ngon tháng 10/2024",
      "salary_from": 1000,
      "salary_upto": 1500,
      "vacancy": 2,
      "position_name": "Backend developer",
      "type_of_employee": "Full time",
      "address": "Da Nang",
      "company": {
        "id": "1",
        "name": "MC Solution",
        "phone": "0123456678",
        "email": "nhphong1804@mcsolution.vn",
        "logo": "/images/company_1.jpeg",
        "company_type": "IT",
        "size": 100
      }
    },
    {
      "id": "1",
      "title": "Job ngon tháng 10/2024",
      "salary_from": 1000,
      "salary_upto": 1500,
      "vacancy": 2,
      "position_name": "Backend developer",
      "type_of_employee": "Full time",
      "address": "Da Nang",
      "company": {
        "id": "1",
        "name": "MC Solution",
        "phone": "0123456678",
        "email": "nhphong1804@mcsolution.vn",
        "logo": "/images/company_1.jpeg",
        "company_type": "IT",
        "size": 100
      }
    },
    {
      "id": "1",
      "title": "Job ngon tháng 10/2024",
      "salary_from": 1000,
      "salary_upto": 1500,
      "vacancy": 2,
      "position_name": "Backend developer",
      "type_of_employee": "Full time",
      "address": "Da Nang",
      "company": {
        "id": "1",
        "name": "MC Solution",
        "phone": "0123456678",
        "email": "nhphong1804@mcsolution.vn",
        "logo": "/images/company_1.jpeg",
        "company_type": "IT",
        "size": 100
      }
    }
  ],
  "meta": {
    "current_page": 1,
    "from": 1,
    "last_page": 10,
    "path": "http://localhost:3000/api/v1/company/jobs",
    "per_page": 10,
    "to": 1,
    "total": 80
  }
}
